<?xml version="1.0" encoding="UTF-8" standalone="no"?>
<!-- Created with Inkscape (http://www.inkscape.org/) -->

<svg
   xmlns:dc="http://purl.org/dc/elements/1.1/"
   xmlns:cc="http://creativecommons.org/ns#"
   xmlns:rdf="http://www.w3.org/1999/02/22-rdf-syntax-ns#"
   xmlns:svg="http://www.w3.org/2000/svg"
   xmlns="http://www.w3.org/2000/svg"
   xmlns:sodipodi="http://sodipodi.sourceforge.net/DTD/sodipodi-0.dtd"
   xmlns:inkscape="http://www.inkscape.org/namespaces/inkscape"
   width="624"
   height="400"
   id="svg2"
   version="1.1"
   inkscape:version="0.48.4 r9939"
   sodipodi:docname="periodic-barrier.svg">
  <defs
     id="defs4">
    <inkscape:perspective
       sodipodi:type="inkscape:persp3d"
       inkscape:vp_x="0 : 526.18109 : 1"
       inkscape:vp_y="0 : 1000 : 0"
       inkscape:vp_z="744.09448 : 526.18109 : 1"
       inkscape:persp3d-origin="372.04724 : 350.78739 : 1"
       id="perspective2995" />
  </defs>
  <sodipodi:namedview
     id="base"
     pagecolor="#ffffff"
     bordercolor="#666666"
     borderopacity="1.0"
     inkscape:pageopacity="0.0"
     inkscape:pageshadow="2"
     inkscape:zoom="1.5464744"
     inkscape:cx="312"
     inkscape:cy="258.86956"
     inkscape:document-units="px"
     inkscape:current-layer="g5136"
     showgrid="false"
     inkscape:snap-grids="true"
     inkscape:window-width="1280"
     inkscape:window-height="973"
     inkscape:window-x="0"
     inkscape:window-y="27"
     inkscape:window-maximized="1" />
  <metadata
     id="metadata7">
    <rdf:RDF>
      <cc:Work
         rdf:about="">
        <dc:format>image/svg+xml</dc:format>
        <dc:type
           rdf:resource="http://purl.org/dc/dcmitype/StillImage" />
        <dc:title></dc:title>
      </cc:Work>
    </rdf:RDF>
  </metadata>
  <g
     inkscape:label="Labels"
     inkscape:groupmode="layer"
     id="layer1"
     transform="translate(0,-652.36218)"
     style="display:inline"
     sodipodi:insensitive="true">
    <text
       xml:space="preserve"
       style="font-size:40px;font-style:normal;font-weight:normal;line-height:125%;letter-spacing:0px;word-spacing:0px;fill:#000000;fill-opacity:1;stroke:none;font-family:Bitstream Vera Sans"
       x="38.328117"
       y="1052.3622"
       id="text3195"
       sodipodi:linespacing="125%"><tspan
         sodipodi:role="line"
         id="tspan3197"
         x="38.328117"
         y="1052.3622">A</tspan></text>
    <text
       xml:space="preserve"
       style="font-size:40px;font-style:normal;font-weight:normal;line-height:125%;letter-spacing:0px;word-spacing:0px;fill:#000000;fill-opacity:1;stroke:none;font-family:Bitstream Vera Sans"
       x="305.73242"
       y="1052.3622"
       id="text3195-4"
       sodipodi:linespacing="125%"><tspan
         sodipodi:role="line"
         x="305.73242"
         y="1052.3622"
         id="tspan3229">B</tspan></text>
    <text
       xml:space="preserve"
       style="font-size:40px;font-style:normal;font-weight:normal;line-height:125%;letter-spacing:0px;word-spacing:0px;fill:#000000;fill-opacity:1;stroke:none;font-family:Bitstream Vera Sans"
       x="557.99609"
       y="1051.7958"
       id="text3195-0"
       sodipodi:linespacing="125%"><tspan
         sodipodi:role="line"
         id="tspan3197-1"
         x="557.99609"
         y="1051.7958">C</tspan></text>
  </g>
  <g
     style="display:none"
     transform="translate(0,-652.36218)"
     id="g3473"
     inkscape:groupmode="layer"
     inkscape:label="Step 0">
    <path
       style="fill:none;stroke:#fcaf3e;stroke-width:10;stroke-linecap:butt;stroke-linejoin:miter;stroke-opacity:1"
       d="M 99.285714,264.28571 275.71429,305"
       id="path5025"
       inkscape:connector-curvature="0"
       transform="translate(0,652.36218)"
       sodipodi:nodetypes="cc" />
    <path
       style="fill:none;stroke:#fcaf3e;stroke-width:10;stroke-linecap:butt;stroke-linejoin:miter;stroke-opacity:1"
       d="M 360.71429,308.57142 525,225.71429"
       id="path5027"
       inkscape:connector-curvature="0"
       transform="translate(0,652.36218)"
       sodipodi:nodetypes="cc" />
    <rect
       y="982.36218"
       x="2"
       height="30"
       width="100"
       id="rect3475"
       style="fill:#eeeeec;fill-opacity:1;stroke:#729fcf;stroke-width:4" />
    <rect
       y="942.36218"
       x="2"
       height="30"
       width="100"
       id="rect3477"
       style="fill:#eeeeec;fill-opacity:1;stroke:#729fcf;stroke-width:4;stroke-linecap:round;stroke-linejoin:bevel;stroke-miterlimit:4;stroke-dasharray:none" />
    <rect
       y="902.36218"
       x="2"
       height="30"
       width="100"
       id="rect3479"
       style="fill:#ad7fa7;fill-opacity:1;stroke:#fcaf3e;stroke-width:3.5999999;stroke-linecap:round;stroke-linejoin:bevel;stroke-miterlimit:4;stroke-dasharray:none" />
    <rect
       y="862.36218"
       x="2"
       height="30"
       width="100"
       id="rect3481"
       style="fill:#babdb6;fill-opacity:1;stroke-width:3.5999999;stroke-linecap:round;stroke-linejoin:bevel;stroke-miterlimit:4;stroke-dasharray:none" />
    <rect
       y="822.36218"
       x="2"
       height="30"
       width="100"
       id="rect3483"
       style="fill:#babdb6;fill-opacity:1;stroke-width:3.5999999;stroke-linecap:round;stroke-linejoin:bevel;stroke-miterlimit:4;stroke-dasharray:none" />
    <rect
       y="782.36218"
       x="2"
       height="30"
       width="100"
       id="rect3485"
       style="fill:#babdb6;fill-opacity:1;stroke-width:3.5999999;stroke-linecap:round;stroke-linejoin:bevel;stroke-miterlimit:4;stroke-dasharray:none" />
    <rect
       y="742.36218"
       x="2"
       height="30"
       width="100"
       id="rect3487"
       style="fill:#ad7fa8;fill-opacity:1;stroke-width:3.5999999;stroke-linecap:round;stroke-linejoin:bevel;stroke-miterlimit:4;stroke-dasharray:none" />
    <rect
       y="702.36218"
       x="2"
       height="30"
       width="100"
       id="rect3489"
       style="fill:#babdb6;fill-opacity:1;stroke-width:3.5999999;stroke-linecap:round;stroke-linejoin:bevel;stroke-miterlimit:4;stroke-dasharray:none" />
    <rect
       y="982.36218"
       x="270"
       height="30"
       width="100"
       id="rect3491"
       style="fill:#eeeeec;fill-opacity:1;stroke:#729fcf;stroke-width:4" />
    <rect
       y="942.36218"
       x="270"
       height="30"
       width="100"
       id="rect3493"
       style="fill:#ad7fa7;fill-opacity:1;stroke:#fcaf3e;stroke-width:3.5999999;stroke-linecap:round;stroke-linejoin:bevel;stroke-miterlimit:4;stroke-dasharray:none" />
    <rect
       y="902.36218"
       x="270"
       height="30"
       width="100"
       id="rect3495"
       style="fill:#babdb6;fill-opacity:1;stroke-width:3.5999999;stroke-linecap:round;stroke-linejoin:bevel;stroke-miterlimit:4;stroke-dasharray:none" />
    <rect
       y="862.36218"
       x="270"
       height="30"
       width="100"
       id="rect3497"
       style="fill:#ad7fa8;fill-opacity:1;stroke-width:3.5999999;stroke-linecap:round;stroke-linejoin:bevel;stroke-miterlimit:4;stroke-dasharray:none" />
    <rect
       y="822.36218"
       x="270"
       height="30"
       width="100"
       id="rect3523"
       style="fill:#babdb6;fill-opacity:1;stroke-width:3.5999999;stroke-linecap:round;stroke-linejoin:bevel;stroke-miterlimit:4;stroke-dasharray:none" />
    <rect
       y="782.36218"
       x="270"
       height="30"
       width="100"
       id="rect3525"
       style="fill:#babdb6;fill-opacity:1;stroke-width:3.5999999;stroke-linecap:round;stroke-linejoin:bevel;stroke-miterlimit:4;stroke-dasharray:none" />
    <rect
       y="742.36218"
       x="270"
       height="30"
       width="100"
       id="rect3527"
       style="fill:#babdb6;fill-opacity:1;stroke-width:3.5999999;stroke-linecap:round;stroke-linejoin:bevel;stroke-miterlimit:4;stroke-dasharray:none" />
    <rect
       y="702.36218"
       x="270"
       height="30"
       width="100"
       id="rect3529"
       style="fill:#babdb6;fill-opacity:1;stroke-width:3.5999999;stroke-linecap:round;stroke-linejoin:bevel;stroke-miterlimit:4;stroke-dasharray:none" />
    <rect
       y="982.36218"
       x="522"
       height="30"
       width="100"
       id="rect3499"
       style="fill:#eeeeec;fill-opacity:1;stroke:#729fcf;stroke-width:4" />
    <rect
       y="942.36218"
       x="522"
       height="30"
       width="100"
       id="rect3501"
       style="fill:#eeeeec;fill-opacity:1;stroke:#729fcf;stroke-width:4;stroke-linecap:round;stroke-linejoin:bevel;stroke-miterlimit:4;stroke-dasharray:none" />
    <rect
       y="902.36218"
       x="522"
       height="30"
       width="100"
       id="rect3503"
       style="fill:#eeeeec;fill-opacity:1;stroke:#729fcf;stroke-width:4;stroke-linecap:round;stroke-linejoin:bevel;stroke-miterlimit:4;stroke-dasharray:none" />
    <rect
       y="862.36218"
       x="522"
       height="30"
       width="100"
       id="rect3505"
       style="fill:#ad7fa7;fill-opacity:1;stroke:#fcaf3e;stroke-width:3.5999999;stroke-linecap:round;stroke-linejoin:bevel;stroke-miterlimit:4;stroke-dasharray:none" />
    <rect
       y="822.36218"
       x="522"
       height="30"
       width="100"
       id="rect3507"
       style="fill:#babdb6;fill-opacity:1;stroke-width:3.5999999;stroke-linecap:round;stroke-linejoin:bevel;stroke-miterlimit:4;stroke-dasharray:none" />
    <rect
       y="782.36218"
       x="522"
       height="30"
       width="100"
       id="rect3509"
       style="fill:#ad7fa8;fill-opacity:1;stroke-width:3.5999999;stroke-linecap:round;stroke-linejoin:bevel;stroke-miterlimit:4;stroke-dasharray:none" />
    <rect
       y="742.36218"
       x="522"
       height="30"
       width="100"
       id="rect3531"
       style="fill:#babdb6;fill-opacity:1;stroke-width:3.5999999;stroke-linecap:round;stroke-linejoin:bevel;stroke-miterlimit:4;stroke-dasharray:none" />
    <rect
       y="702.36218"
       x="522"
       height="30"
       width="100"
       id="rect3533"
       style="fill:#babdb6;fill-opacity:1;stroke-width:3.5999999;stroke-linecap:round;stroke-linejoin:bevel;stroke-miterlimit:4;stroke-dasharray:none" />
    <text
       xml:space="preserve"
       style="font-size:20px;font-style:normal;font-weight:normal;line-height:125%;letter-spacing:0px;word-spacing:0px;fill:#000000;fill-opacity:1;stroke:none;font-family:Bitstream Vera Sans"
       x="398.15503"
       y="1001.407"
       id="text5033"
       sodipodi:linespacing="125%"><tspan
         sodipodi:role="line"
         id="tspan5035"
         x="398.15503"
         y="1001.407"
         style="font-size:20px">phase 1</tspan></text>
  </g>
  <g
     inkscape:label="Step 1"
     inkscape:groupmode="layer"
     id="g5066"
     transform="translate(0,-652.36218)"
     style="display:none">
    <path
       transform="translate(0,652.36218)"
       inkscape:connector-curvature="0"
       id="path5120"
       d="M 95.714286,105.71429 272.85714,223.57143"
       style="fill:none;stroke:#fcaf3d;stroke-width:10;stroke-linecap:butt;stroke-linejoin:miter;stroke-opacity:1" />
    <path
       transform="translate(0,652.36218)"
       inkscape:connector-curvature="0"
       id="path5122"
       d="M 366.42857,224.28571 524.28571,145.71429"
       style="fill:none;stroke:#fcaf3d;stroke-width:10;stroke-linecap:butt;stroke-linejoin:miter;stroke-opacity:1" />
    <rect
       style="fill:#b9bdb6;fill-opacity:1"
       id="rect5068"
       width="100"
       height="30"
       x="2"
       y="982.36218" />
    <rect
       style="fill:#babdb6;fill-opacity:1;stroke-width:3.5999999;stroke-linecap:round;stroke-linejoin:bevel;stroke-miterlimit:4;stroke-dasharray:none"
       id="rect5070"
       width="100"
       height="30"
       x="2"
       y="942.36218" />
    <rect
       style="fill:#ad7fa7;fill-opacity:1;stroke-width:3.5999999;stroke-linecap:round;stroke-linejoin:bevel;stroke-miterlimit:4;stroke-dasharray:none"
       id="rect5072"
       width="100"
       height="30"
       x="2"
       y="902.36218" />
    <rect
       style="fill:#eeeeec;fill-opacity:1;stroke:#729fcf;stroke-width:4;stroke-linecap:round;stroke-linejoin:bevel;stroke-miterlimit:4;stroke-dasharray:none"
       id="rect5074"
       width="100"
       height="30"
       x="2"
       y="862.36218" />
    <rect
       style="fill:#eeeeec;fill-opacity:1;stroke:#729fcf;stroke-width:4;stroke-linecap:round;stroke-linejoin:bevel;stroke-miterlimit:4;stroke-dasharray:none"
       id="rect5076"
       width="100"
       height="30"
       x="2"
       y="822.36218" />
    <rect
       style="fill:#eeeeec;fill-opacity:1;stroke:#729fcf;stroke-width:4;stroke-linecap:round;stroke-linejoin:bevel;stroke-miterlimit:4;stroke-dasharray:none"
       id="rect5078"
       width="100"
       height="30"
       x="2"
       y="782.36218" />
    <rect
       style="fill:#ad7fa8;fill-opacity:1;stroke:#fcaf3e;stroke-width:3.5999999;stroke-linecap:round;stroke-linejoin:bevel;stroke-miterlimit:4;stroke-dasharray:none"
       id="rect5080"
       width="100"
       height="30"
       x="2"
       y="742.36218" />
    <rect
       style="fill:#babdb6;fill-opacity:1;stroke-width:3.5999999;stroke-linecap:round;stroke-linejoin:bevel;stroke-miterlimit:4;stroke-dasharray:none"
       id="rect5082"
       width="100"
       height="30"
       x="2"
       y="702.36218" />
    <rect
       style="fill:#b9bdb6;fill-opacity:1"
       id="rect5084"
       width="100"
       height="30"
       x="270"
       y="982.36218" />
    <rect
       style="fill:#ad7fa7;fill-opacity:1;stroke-width:3.5999999;stroke-linecap:round;stroke-linejoin:bevel;stroke-miterlimit:4;stroke-dasharray:none"
       id="rect5086"
       width="100"
       height="30"
       x="270"
       y="942.36218" />
    <rect
       style="fill:#eeeeec;fill-opacity:1;stroke:#729fcf;stroke-width:4;stroke-linecap:round;stroke-linejoin:bevel;stroke-miterlimit:4;stroke-dasharray:none"
       id="rect5088"
       width="100"
       height="30"
       x="270"
       y="902.36218" />
    <rect
       style="fill:#ad7fa8;fill-opacity:1;stroke:#fcaf3e;stroke-width:3.5999999;stroke-linecap:round;stroke-linejoin:bevel;stroke-miterlimit:4;stroke-dasharray:none"
       id="rect5090"
       width="100"
       height="30"
       x="270"
       y="862.36218" />
    <rect
       style="fill:#babdb6;fill-opacity:1;stroke-width:3.5999999;stroke-linecap:round;stroke-linejoin:bevel;stroke-miterlimit:4;stroke-dasharray:none"
       id="rect5092"
       width="100"
       height="30"
       x="270"
       y="822.36218" />
    <rect
       style="fill:#babdb6;fill-opacity:1;stroke-width:3.5999999;stroke-linecap:round;stroke-linejoin:bevel;stroke-miterlimit:4;stroke-dasharray:none"
       id="rect5094"
       width="100"
       height="30"
       x="270"
       y="782.36218" />
    <rect
       style="fill:#babdb6;fill-opacity:1;stroke-width:3.5999999;stroke-linecap:round;stroke-linejoin:bevel;stroke-miterlimit:4;stroke-dasharray:none"
       id="rect5096"
       width="100"
       height="30"
       x="270"
       y="742.36218" />
    <rect
       style="fill:#babdb6;fill-opacity:1;stroke-width:3.5999999;stroke-linecap:round;stroke-linejoin:bevel;stroke-miterlimit:4;stroke-dasharray:none"
       id="rect5098"
       width="100"
       height="30"
       x="270"
       y="702.36218" />
    <rect
       style="fill:#b9bdb6;fill-opacity:1"
       id="rect5100"
       width="100"
       height="30"
       x="522"
       y="982.36218" />
    <rect
       style="fill:#babdb6;fill-opacity:1;stroke-width:3.5999999;stroke-linecap:round;stroke-linejoin:bevel;stroke-miterlimit:4;stroke-dasharray:none"
       id="rect5102"
       width="100"
       height="30"
       x="522"
       y="942.36218" />
    <rect
       style="fill:#babdb6;fill-opacity:1;stroke-width:3.5999999;stroke-linecap:round;stroke-linejoin:bevel;stroke-miterlimit:4;stroke-dasharray:none"
       id="rect5104"
       width="100"
       height="30"
       x="522"
       y="902.36218" />
    <rect
       style="fill:#ad7fa7;fill-opacity:1;stroke-width:3.5999999;stroke-linecap:round;stroke-linejoin:bevel;stroke-miterlimit:4;stroke-dasharray:none"
       id="rect5106"
       width="100"
       height="30"
       x="522"
       y="862.36218" />
    <rect
       style="fill:#eeeeec;fill-opacity:1;stroke:#729fcf;stroke-width:4;stroke-linecap:round;stroke-linejoin:bevel;stroke-miterlimit:4;stroke-dasharray:none"
       id="rect5108"
       width="100"
       height="30"
       x="522"
       y="822.36218" />
    <rect
       style="fill:#ad7fa8;fill-opacity:1;stroke:#fcaf3e;stroke-width:3.5999999;stroke-linecap:round;stroke-linejoin:bevel;stroke-miterlimit:4;stroke-dasharray:none"
       id="rect5110"
       width="100"
       height="30"
       x="522"
       y="782.36218" />
    <rect
       style="fill:#babdb6;fill-opacity:1;stroke-width:3.5999999;stroke-linecap:round;stroke-linejoin:bevel;stroke-miterlimit:4;stroke-dasharray:none"
       id="rect5112"
       width="100"
       height="30"
       x="522"
       y="742.36218" />
    <rect
       style="fill:#babdb6;fill-opacity:1;stroke-width:3.5999999;stroke-linecap:round;stroke-linejoin:bevel;stroke-miterlimit:4;stroke-dasharray:none"
       id="rect5114"
       width="100"
       height="30"
       x="522"
       y="702.36218" />
    <text
       sodipodi:linespacing="125%"
       id="text5128"
       y="889.505"
       x="398.23315"
       style="font-size:40px;font-style:normal;font-weight:normal;line-height:125%;letter-spacing:0px;word-spacing:0px;fill:#000000;fill-opacity:1;stroke:none;font-family:Bitstream Vera Sans"
       xml:space="preserve"><tspan
         style="font-size:20px"
         y="889.505"
         x="398.23315"
         id="tspan5130"
         sodipodi:role="line">phase 2</tspan></text>
  </g>
  <g
     style="display:inline"
     transform="translate(0,-652.36218)"
     id="g5136"
     inkscape:groupmode="layer"
     inkscape:label="Step 2">
    <rect
       y="982.36218"
       x="2"
       height="30"
       width="100"
       id="rect5138"
       style="fill:#b9bdb6;fill-opacity:1" />
    <rect
       y="942.36218"
       x="2"
       height="30"
       width="100"
       id="rect5140"
       style="fill:#babdb6;fill-opacity:1;stroke-width:3.5999999;stroke-linecap:round;stroke-linejoin:bevel;stroke-miterlimit:4;stroke-dasharray:none" />
    <rect
       y="902.36218"
       x="2"
       height="30"
       width="100"
       id="rect5142"
       style="fill:#ad7fa7;fill-opacity:1;stroke-width:3.5999999;stroke-linecap:round;stroke-linejoin:bevel;stroke-miterlimit:4;stroke-dasharray:none" />
    <rect
       y="862.36218"
       x="2"
       height="30"
       width="100"
       id="rect5144"
       style="fill:#babdb6;fill-opacity:1;stroke-width:3.5999999;stroke-linecap:round;stroke-linejoin:bevel;stroke-miterlimit:4;stroke-dasharray:none" />
    <rect
       y="822.36218"
       x="2"
       height="30"
       width="100"
       id="rect5146"
       style="fill:#babdb6;fill-opacity:1;stroke-width:3.5999999;stroke-linecap:round;stroke-linejoin:bevel;stroke-miterlimit:4;stroke-dasharray:none" />
    <rect
       y="782.36218"
       x="2"
       height="30"
       width="100"
       id="rect5148"
       style="fill:#babdb6;fill-opacity:1;stroke-width:3.5999999;stroke-linecap:round;stroke-linejoin:bevel;stroke-miterlimit:4;stroke-dasharray:none" />
    <rect
       y="742.36218"
       x="2"
       height="30"
       width="100"
       id="rect5150"
       style="fill:#ad7fa8;fill-opacity:1;stroke-width:3.5999999;stroke-linecap:round;stroke-linejoin:bevel;stroke-miterlimit:4;stroke-dasharray:none" />
    <rect
       y="702.36218"
       x="2"
       height="30"
       width="100"
       id="rect5152"
       style="fill:#eeeeec;fill-opacity:1;stroke:#729fcf;stroke-width:4;stroke-linecap:round;stroke-linejoin:bevel;stroke-miterlimit:4;stroke-dasharray:none" />
    <rect
       y="982.36218"
       x="270"
       height="30"
       width="100"
       id="rect5154"
       style="fill:#b9bdb6;fill-opacity:1" />
    <rect
       y="942.36218"
       x="270"
       height="30"
       width="100"
       id="rect5156"
       style="fill:#ad7fa7;fill-opacity:1;stroke-width:3.5999999;stroke-linecap:round;stroke-linejoin:bevel;stroke-miterlimit:4;stroke-dasharray:none" />
    <rect
       y="902.36218"
       x="270"
       height="30"
       width="100"
       id="rect5158"
       style="fill:#babdb6;fill-opacity:1;stroke-width:3.5999999;stroke-linecap:round;stroke-linejoin:bevel;stroke-miterlimit:4;stroke-dasharray:none" />
    <rect
       y="862.36218"
       x="270"
       height="30"
       width="100"
       id="rect5160"
       style="fill:#ad7fa8;fill-opacity:1;stroke-width:3.5999999;stroke-linecap:round;stroke-linejoin:bevel;stroke-miterlimit:4;stroke-dasharray:none" />
    <rect
       y="822.36218"
       x="270"
       height="30"
       width="100"
       id="rect5162"
       style="fill:#eeeeec;fill-opacity:1;stroke:#729fcf;stroke-width:4;stroke-linecap:round;stroke-linejoin:bevel;stroke-miterlimit:4;stroke-dasharray:none" />
    <rect
       y="782.36218"
       x="270"
       height="30"
       width="100"
       id="rect5164"
       style="fill:#eeeeec;fill-opacity:1;stroke:#729fcf;stroke-width:4;stroke-linecap:round;stroke-linejoin:bevel;stroke-miterlimit:4;stroke-dasharray:none" />
    <rect
       y="742.36218"
       x="270"
       height="30"
       width="100"
       id="rect5166"
       style="fill:#eeeeec;fill-opacity:1;stroke:#729fcf;stroke-width:4;stroke-linecap:round;stroke-linejoin:bevel;stroke-miterlimit:4;stroke-dasharray:none" />
    <rect
       y="702.36218"
       x="270"
       height="30"
       width="100"
       id="rect5168"
       style="fill:#eeeeec;fill-opacity:1;stroke:#729fcf;stroke-width:4;stroke-linecap:round;stroke-linejoin:bevel;stroke-miterlimit:4;stroke-dasharray:none" />
    <rect
       y="982.36218"
       x="522"
       height="30"
       width="100"
       id="rect5170"
       style="fill:#b9bdb6;fill-opacity:1" />
    <rect
       y="942.36218"
       x="522"
       height="30"
       width="100"
       id="rect5172"
       style="fill:#babdb6;fill-opacity:1;stroke-width:3.5999999;stroke-linecap:round;stroke-linejoin:bevel;stroke-miterlimit:4;stroke-dasharray:none" />
    <rect
       y="902.36218"
       x="522"
       height="30"
       width="100"
       id="rect5174"
       style="fill:#babdb6;fill-opacity:1;stroke-width:3.5999999;stroke-linecap:round;stroke-linejoin:bevel;stroke-miterlimit:4;stroke-dasharray:none" />
    <rect
       y="862.36218"
       x="522"
       height="30"
       width="100"
       id="rect5176"
       style="fill:#ad7fa7;fill-opacity:1;stroke-width:3.5999999;stroke-linecap:round;stroke-linejoin:bevel;stroke-miterlimit:4;stroke-dasharray:none" />
    <rect
       y="822.36218"
       x="522"
       height="30"
       width="100"
       id="rect5178"
       style="fill:#babdb6;fill-opacity:1;stroke-width:3.5999999;stroke-linecap:round;stroke-linejoin:bevel;stroke-miterlimit:4;stroke-dasharray:none" />
    <rect
       y="782.36218"
       x="522"
       height="30"
       width="100"
       id="rect5180"
       style="fill:#ad7fa8;fill-opacity:1;stroke-width:3.5999999;stroke-linecap:round;stroke-linejoin:bevel;stroke-miterlimit:4;stroke-dasharray:none" />
    <rect
       y="742.36218"
       x="522"
       height="30"
       width="100"
       id="rect5182"
       style="fill:#eeeeec;fill-opacity:1;stroke:#729fcf;stroke-width:4;stroke-linecap:round;stroke-linejoin:bevel;stroke-miterlimit:4;stroke-dasharray:none" />
    <rect
       y="702.36218"
       x="522"
       height="30"
       width="100"
       id="rect5184"
       style="fill:#eeeeec;fill-opacity:1;stroke:#729fcf;stroke-width:4;stroke-linecap:round;stroke-linejoin:bevel;stroke-miterlimit:4;stroke-dasharray:none" />
    <text
       xml:space="preserve"
       style="font-size:40px;font-style:normal;font-weight:normal;line-height:125%;letter-spacing:0px;word-spacing:0px;fill:#000000;fill-opacity:1;stroke:none;display:inline;font-family:Bitstream Vera Sans"
       x="398.03296"
       y="789.30835"
       id="text5202"
       sodipodi:linespacing="125%"><tspan
         sodipodi:role="line"
         x="398.03296"
         y="789.30835"
         style="font-size:20px"
         id="tspan5204">phase 3</tspan></text>
  </g>
</svg>
