<?xml version="1.0" encoding="UTF-8" standalone="no"?>
<svg
   xmlns:dc="http://purl.org/dc/elements/1.1/"
   xmlns:cc="http://creativecommons.org/ns#"
   xmlns:rdf="http://www.w3.org/1999/02/22-rdf-syntax-ns#"
   xmlns:svg="http://www.w3.org/2000/svg"
   xmlns="http://www.w3.org/2000/svg"
   xmlns:sodipodi="http://sodipodi.sourceforge.net/DTD/sodipodi-0.dtd"
   xmlns:inkscape="http://www.inkscape.org/namespaces/inkscape"
   fill-opacity="1"
   color-rendering="auto"
   color-interpolation="auto"
   stroke="black"
   text-rendering="auto"
   stroke-linecap="square"
   width="235"
   stroke-miterlimit="10"
   stroke-opacity="1"
   shape-rendering="auto"
   fill="black"
   stroke-dasharray="none"
   font-weight="normal"
   stroke-width="1"
   height="270"
   font-family="'Dialog'"
   font-style="normal"
   stroke-linejoin="miter"
   font-size="12"
   stroke-dashoffset="0"
   image-rendering="auto"
   id="svg2"
   version="1.1"
   inkscape:version="0.48.4 r9939"
   sodipodi:docname="state.svg"
   enable-background="new">
  <metadata
     id="metadata82">
    <rdf:RDF>
      <cc:Work
         rdf:about="">
        <dc:format>image/svg+xml</dc:format>
        <dc:type
           rdf:resource="http://purl.org/dc/dcmitype/StillImage" />
        <dc:title></dc:title>
      </cc:Work>
    </rdf:RDF>
  </metadata>
  <sodipodi:namedview
     pagecolor="#ffffff"
     bordercolor="#666666"
     borderopacity="1"
     objecttolerance="10"
     gridtolerance="10"
     guidetolerance="10"
     inkscape:pageopacity="0"
     inkscape:pageshadow="2"
     inkscape:window-width="1366"
     inkscape:window-height="712"
     id="namedview80"
     showgrid="false"
     inkscape:zoom="1.7481481"
     inkscape:cx="86.194706"
     inkscape:cy="113.92043"
     inkscape:window-x="0"
     inkscape:window-y="27"
     inkscape:window-maximized="1"
     inkscape:current-layer="svg2" />
  <!--Generated by ySVG-->
  <defs
     id="genericDefs" />
  <g
     id="g5">
    <defs
       id="defs1">
      <clipPath
         clipPathUnits="userSpaceOnUse"
         id="clipPath1">
        <path
           d="M0 0 L235 0 L235 270 L0 270 L0 0 Z"
           id="path9" />
      </clipPath>
      <clipPath
         clipPathUnits="userSpaceOnUse"
         id="clipPath2">
        <path
           d="M-15 -15 L220 -15 L220 255 L-15 255 L-15 -15 Z"
           id="path12" />
      </clipPath>
    </defs>
    <g
       fill="white"
       transform="translate(15,15)"
       stroke="white"
       id="g14">
      <rect
         x="-15"
         width="235"
         height="270"
         y="-15"
         clip-path="url(#clipPath2)"
         stroke="none"
         id="rect16" />
    </g>
    <g
       stroke-miterlimit="1.45"
       font-family="sans-serif"
       transform="matrix(1,0,0,1,15,15)"
       stroke-linecap="butt"
       id="g18">
      <text
         x="71.5166"
         xml:space="preserve"
         y="19.1543"
         clip-path="url(#clipPath2)"
         stroke="none"
         id="text20">Q<tspan
   style="font-size:65%;baseline-shift:sub"
   id="tspan3059">1</tspan>;A<tspan
   style="font-size:65%;baseline-shift:sub"
   id="tspan3061">1</tspan></text>
      <path
         fill="none"
         d="M64 15 L69.2 -0 L110.8 -0 L116 15 L110.8 30 L69.2 30 Z"
         fill-rule="evenodd"
         clip-path="url(#clipPath2)"
         id="path22" />
      <text
         x="7.5059"
         xml:space="preserve"
         y="89.1543"
         clip-path="url(#clipPath2)"
         stroke="none"
         id="text24">a<tspan
   style="font-size:65%;baseline-shift:sub"
   id="tspan3063">1</tspan></text>
      <rect
         fill="none"
         x="0"
         width="30"
         height="30"
         y="70"
         clip-path="url(#clipPath2)"
         id="rect26" />
      <text
         x="57.5059"
         xml:space="preserve"
         y="89.1543"
         clip-path="url(#clipPath2)"
         stroke="none"
         id="text28">a<tspan
   style="font-size:65%;baseline-shift:sub"
   id="tspan3065">2</tspan></text>
      <rect
         fill="none"
         x="50"
         width="30"
         height="30"
         y="70"
         clip-path="url(#clipPath2)"
         id="rect30" />
      <text
         x="107.5059"
         xml:space="preserve"
         y="89.1543"
         clip-path="url(#clipPath2)"
         stroke="none"
         id="text32">a<tspan
   style="font-size:65%;baseline-shift:sub"
   id="tspan3067">3</tspan></text>
      <rect
         fill="none"
         x="100"
         width="30"
         height="30"
         y="70"
         clip-path="url(#clipPath2)"
         id="rect34" />
      <text
         x="146.5166"
         xml:space="preserve"
         y="159.1543"
         clip-path="url(#clipPath2)"
         stroke="none"
         id="text36">Q<tspan
   style="font-size:65%;baseline-shift:sub"
   id="tspan3071">2</tspan>;A<tspan
   style="font-size:65%;baseline-shift:sub"
   id="tspan3073">2</tspan></text>
      <path
         fill="none"
         d="M139.0001 155 L144.2001 140 L185.8001 140 L191.0001 155 L185.8001 170 L144.2001 170 Z"
         fill-rule="evenodd"
         clip-path="url(#clipPath2)"
         id="path38" />
      <text
         x="157.5059"
         xml:space="preserve"
         y="89.1543"
         clip-path="url(#clipPath2)"
         stroke="none"
         id="text40">a<tspan
   style="font-size:65%;baseline-shift:sub"
   id="tspan3069">4</tspan></text>
      <path
         fill="none"
         d="M150 85 L165 70 L180 85 L165 100 Z"
         fill-rule="evenodd"
         clip-path="url(#clipPath2)"
         id="path42" />
      <text
         x="132.5059"
         xml:space="preserve"
         y="229.1543"
         clip-path="url(#clipPath2)"
         stroke="none"
         id="text44">a<tspan
   style="font-size:65%;baseline-shift:sub"
   id="tspan3075">5</tspan></text>
      <rect
         fill="none"
         x="125"
         width="30"
         height="30"
         y="210"
         clip-path="url(#clipPath2)"
         id="rect46" />
      <text
         x="182.5059"
         xml:space="preserve"
         y="229.1543"
         clip-path="url(#clipPath2)"
         stroke="none"
         id="text48">a<tspan
   style="font-size:65%;baseline-shift:sub"
   id="tspan3077">6</tspan></text>
      <rect
         fill="none"
         x="175"
         width="30"
         height="30"
         y="210"
         clip-path="url(#clipPath2)"
         id="rect50" />
      <path
         fill="none"
         d="M73.9417 29.9878 L35.8484 65.5415"
         clip-path="url(#clipPath2)"
         id="path52" />
      <path
         d="M30 71 L42.1843 66.4675 L36.5795 64.8591 L35.3611 59.1569 Z"
         clip-path="url(#clipPath2)"
         stroke="none"
         id="path54" />
      <path
         fill="none"
         d="M84.6411 30.0049 L73.0478 62.4661"
         clip-path="url(#clipPath2)"
         id="path56" />
      <path
         d="M70.3571 70 L79.1019 60.3808 L73.3842 61.5243 L69.6845 57.0174 Z"
         clip-path="url(#clipPath2)"
         stroke="none"
         id="path58" />
      <path
         fill="none"
         d="M95.3589 30.0049 L106.9522 62.4661"
         clip-path="url(#clipPath2)"
         id="path60" />
      <path
         d="M109.6429 70 L110.3155 57.0174 L106.6158 61.5243 L100.8981 60.3808 Z"
         clip-path="url(#clipPath2)"
         stroke="none"
         id="path62" />
      <path
         fill="none"
         d="M106.0583 29.9878 L151.4097 72.3157"
         clip-path="url(#clipPath2)"
         id="path64" />
      <path
         d="M157.2581 77.7743 L151.8971 65.9312 L150.6786 71.6334 L145.0739 73.2417 Z"
         clip-path="url(#clipPath2)"
         stroke="none"
         id="path66" />
      <path
         fill="none"
         d="M165 100.0049 L165 131.9891"
         clip-path="url(#clipPath2)"
         id="path68" />
      <path
         d="M165 139.9891 L170 127.9891 L165 130.9891 L160 127.9891 Z"
         clip-path="url(#clipPath2)"
         stroke="none"
         id="path70" />
      <path
         fill="none"
         d="M159.6411 170.0049 L148.0478 202.4661"
         clip-path="url(#clipPath2)"
         id="path72" />
      <path
         d="M145.3571 210 L154.1019 200.3808 L148.3842 201.5243 L144.6845 197.0174 Z"
         clip-path="url(#clipPath2)"
         stroke="none"
         id="path74" />
      <path
         fill="none"
         d="M170.3589 170.0049 L181.9522 202.4661"
         clip-path="url(#clipPath2)"
         id="path76" />
      <path
         d="M184.6429 210 L185.3155 197.0174 L181.6158 201.5243 L175.8981 200.3808 Z"
         clip-path="url(#clipPath2)"
         stroke="none"
         id="path78" />
    </g>
  </g>
  <g
     inkscape:groupmode="layer"
     id="layer1"
     inkscape:label="activities"
     style="display:none">
    <path
       sodipodi:type="arc"
       id="path3125"
       sodipodi:cx="112.44795"
       sodipodi:cy="106.58643"
       sodipodi:rx="114.87489"
       sodipodi:ry="39.235435"
       d="m 227.32285,106.58643 a 114.87489,39.235435 0 1 1 -229.7497909,0 114.87489,39.235435 0 1 1 229.7497909,0 z"
       style="opacity:0.48939999;fill:#729fcf;stroke:#000000;stroke-width:4.63516951;stroke-opacity:1"
       transform="matrix(0.86855423,0,0,0.85741637,3.6573633,8.7256544)" />
    <path
       sodipodi:type="arc"
       style="opacity:0.48939999;fill:#729fcf;stroke:#000000;stroke-width:4;stroke-opacity:1"
       id="path3151"
       sodipodi:cx="112.97669"
       sodipodi:cy="31.461864"
       sodipodi:rx="10.29661"
       sodipodi:ry="10.868644"
       d="m 123.2733,31.461864 a 10.29661,10.868644 0 1 1 -20.59322,0 10.29661,10.868644 0 1 1 20.59322,0 z" />
    <path
       sodipodi:type="arc"
       style="opacity:0.48939999;fill:#729fcf;stroke:#000000;stroke-width:4;stroke-opacity:1"
       id="path3155"
       sodipodi:cx="190.7733"
       sodipodi:cy="176.75847"
       sodipodi:rx="11.154661"
       sodipodi:ry="12.584745"
       d="m 201.92796,176.75847 a 11.154661,12.584745 0 1 1 -22.30932,0 11.154661,12.584745 0 1 1 22.30932,0 z"
       transform="translate(-3.4322034,-5.720339)" />
    <path
       sodipodi:type="arc"
       style="opacity:0.48939999;fill:#729fcf;stroke:#000000;stroke-width:4;stroke-opacity:1"
       id="path3157"
       sodipodi:cx="174.47034"
       sodipodi:cy="231.67372"
       sodipodi:rx="51.483051"
       sodipodi:ry="28.029661"
       d="m 225.95339,231.67372 a 51.483051,28.029661 0 1 1 -102.9661,0 51.483051,28.029661 0 1 1 102.9661,0 z"
       transform="translate(3.4322034,7.4364407)" />
    <text
       xml:space="preserve"
       style="font-size:12px;font-style:normal;font-weight:normal;line-height:125%;letter-spacing:0px;word-spacing:0px;fill:#000000;fill-opacity:1;stroke:none;font-family:Sans"
       x="7.4364405"
       y="58.34745"
       id="text3049"
       sodipodi:linespacing="125%"><tspan
         sodipodi:role="line"
         id="tspan3051"
         x="7.4364405"
         y="58.34745">activities</tspan></text>
    <text
       xml:space="preserve"
       style="font-size:12px;font-style:normal;font-weight:normal;line-height:125%;letter-spacing:0px;word-spacing:0px;fill:#000000;fill-opacity:1;stroke:none;display:inline;font-family:Sans"
       x="85.567635"
       y="210.40584"
       id="text3049-1"
       sodipodi:linespacing="125%"><tspan
         sodipodi:role="line"
         id="tspan3051-1"
         x="85.567635"
         y="210.40584">activities</tspan></text>
  </g>
  <g
     inkscape:groupmode="layer"
     id="layer2"
     inkscape:label="activity"
     style="display:none">
    <path
       sodipodi:type="arc"
       style="opacity:0.48939999;fill:#729fcf;stroke:#000000;stroke-width:4;stroke-opacity:1"
       id="path3159"
       sodipodi:cx="29.173729"
       sodipodi:cy="101.82204"
       sodipodi:rx="28.029661"
       sodipodi:ry="24.597458"
       d="m 57.20339,101.82204 a 28.029661,24.597458 0 1 1 -56.0593222,0 28.029661,24.597458 0 1 1 56.0593222,0 z"
       transform="matrix(0.82272394,0,0,1.0072901,6.3158717,-0.74228901)" />
    <path
       sodipodi:type="arc"
       style="opacity:0.48939999;fill:#729fcf;stroke:#000000;stroke-width:4;stroke-opacity:1"
       id="path3161"
       sodipodi:cx="177.61653"
       sodipodi:cy="95.243645"
       sodipodi:rx="25.455509"
       sodipodi:ry="23.739407"
       d="m 203.07204,95.243645 a 25.455509,23.739407 0 1 1 -50.91102,0 25.455509,23.739407 0 1 1 50.91102,0 z"
       transform="matrix(0.87620549,0,0,0.84316013,25.420149,18.942237)" />
    <text
       xml:space="preserve"
       style="font-size:12px;font-style:normal;font-weight:normal;line-height:125%;letter-spacing:0px;word-spacing:0px;fill:#000000;fill-opacity:1;stroke:none;font-family:Sans"
       x="9.724577"
       y="69.788139"
       id="text3202"
       sodipodi:linespacing="125%"><tspan
         sodipodi:role="line"
         id="tspan3204"
         x="9.724577"
         y="69.788139">regular</tspan></text>
    <text
       xml:space="preserve"
       style="font-size:12px;font-style:normal;font-weight:normal;line-height:125%;letter-spacing:0px;word-spacing:0px;fill:#000000;fill-opacity:1;stroke:none;display:inline;font-family:Sans"
       x="166.46455"
       y="70.810547"
       id="text3202-9"
       sodipodi:linespacing="125%"><tspan
         sodipodi:role="line"
         id="tspan3204-5"
         x="166.46455"
         y="70.810547">finish</tspan></text>
  </g>
  <g
     inkscape:groupmode="layer"
     id="layer3"
     inkscape:label="phaser"
     style="display:inline">
    <path
       sodipodi:type="arc"
       style="opacity:0.48939999;fill:#729fcf;stroke:#000000;stroke-width:4;stroke-opacity:1"
       id="path3164"
       sodipodi:cx="90.667374"
       sodipodi:cy="30.317797"
       sodipodi:rx="16.302965"
       sodipodi:ry="16.016949"
       d="m 106.97034,30.317797 a 16.302965,16.016949 0 1 1 -32.605932,0 16.302965,16.016949 0 1 1 32.605932,0 z" />
    <path
       sodipodi:type="arc"
       style="opacity:0.48939999;fill:#729fcf;stroke:#000000;stroke-width:4;stroke-opacity:1"
       id="path3166"
       sodipodi:cx="167.60593"
       sodipodi:cy="171.61017"
       sodipodi:rx="13.156779"
       sodipodi:ry="12.584745"
       d="m 180.76271,171.61017 a 13.156779,12.584745 0 1 1 -26.31356,0 13.156779,12.584745 0 1 1 26.31356,0 z" />
    <text
       xml:space="preserve"
       style="font-size:13px;font-style:normal;font-weight:normal;line-height:125%;letter-spacing:0px;word-spacing:0px;fill:#000000;fill-opacity:1;stroke:none;font-family:Sans"
       x="12.933217"
       y="22.463545"
       id="text3168"
       sodipodi:linespacing="125%"><tspan
         sodipodi:role="line"
         id="tspan3170"
         x="12.933217"
         y="22.463545">phasers</tspan></text>
    <text
       xml:space="preserve"
       style="font-size:13px;font-style:normal;font-weight:normal;line-height:125%;letter-spacing:0px;word-spacing:0px;fill:#000000;fill-opacity:1;stroke:none;font-family:Sans"
       x="91.873901"
       y="175.76863"
       id="text3168-3"
       sodipodi:linespacing="125%"><tspan
         sodipodi:role="line"
         id="tspan3170-7"
         x="91.873901"
         y="175.76863">phasers</tspan></text>
  </g>
  <text
     xml:space="preserve"
     style="font-size:12px;font-style:normal;font-weight:normal;line-height:125%;letter-spacing:0px;word-spacing:0px;fill:#cc0000;fill-opacity:1;stroke:none;font-family:Sans"
     x="8.5805073"
     y="244.83051"
     id="text3093"
     sodipodi:linespacing="125%"><tspan
       sodipodi:role="line"
       id="tspan3095"
       x="8.5805073"
       y="244.83051">Q<tspan
   style="font-size:12px;baseline-shift:sub;fill:#cc0000"
   id="tspan3099">1</tspan> and Q<tspan
   style="font-size:12px;baseline-shift:sub;fill:#cc0000"
   id="tspan3097">2</tspan> disjoint</tspan></text>
</svg>
